-------------------------------------------------------------------------------
Test set: com.kyanja.limitsservice.LimitsServiceApplicationTests
-------------------------------------------------------------------------------
Tests run: 1, Failures: 0, Errors: 0, Skipped: 0, Time elapsed: 48.31 s - in com.kyanja.limitsservice.LimitsServiceApplicationTests
